%YAML 1.1
%TAG !u! tag:unity3d.com,2011:
--- !u!1001 &100100000
Prefab:
  m_ObjectHideFlags: 1
  serializedVersion: 2
  m_Modification:
    m_TransformParent: {fileID: 0}
    m_Modifications: []
    m_RemovedComponents: []
  m_SourcePrefab: {fileID: 0}
  m_RootGameObject: {fileID: 1387199557540050}
  m_IsPrefabAsset: 1
--- !u!1 &1324888684705316
GameObject:
  m_ObjectHideFlags: 0
  m_CorrespondingSourceObject: {fileID: 0}
  m_PrefabInternal: {fileID: 100100000}
  serializedVersion: 6
  m_Component:
  - component: {fileID: 4185271546936292}
  - component: {fileID: 8195094281887025692}
  - component: {fileID: 3664157346280047578}
  m_Layer: 31
  m_Name: Layer1
  m_TagString: Untagged
  m_Icon: {fileID: 0}
  m_NavMeshLayer: 0
  m_StaticEditorFlags: 0
  m_IsActive: 1
--- !u!1 &1387199557540050
GameObject:
  m_ObjectHideFlags: 0
  m_CorrespondingSourceObject: {fileID: 0}
  m_PrefabInternal: {fileID: 100100000}
  serializedVersion: 6
  m_Component:
  - component: {fileID: 4411340716399560}
  - component: {fileID: 2569400265902863078}
  m_Layer: 31
  m_Name: PipesTiles
  m_TagString: Untagged
  m_Icon: {fileID: 0}
  m_NavMeshLayer: 0
  m_StaticEditorFlags: 0
  m_IsActive: 1
--- !u!4 &4185271546936292
Transform:
  m_ObjectHideFlags: 1
  m_CorrespondingSourceObject: {fileID: 0}
  m_PrefabInternal: {fileID: 100100000}
  m_GameObject: {fileID: 1324888684705316}
  m_LocalRotation: {x: -0, y: -0, z: -0, w: 1}
  m_LocalPosition: {x: 0, y: 0, z: 0}
  m_LocalScale: {x: 1, y: 1, z: 1}
  m_Children: []
  m_Father: {fileID: 4411340716399560}
  m_RootOrder: 0
  m_LocalEulerAnglesHint: {x: 0, y: 0, z: 0}
--- !u!4 &4411340716399560
Transform:
  m_ObjectHideFlags: 1
  m_CorrespondingSourceObject: {fileID: 0}
  m_PrefabInternal: {fileID: 100100000}
  m_GameObject: {fileID: 1387199557540050}
  m_LocalRotation: {x: 0, y: 0, z: 0, w: 1}
  m_LocalPosition: {x: 0, y: 0, z: 0}
  m_LocalScale: {x: 1, y: 1, z: 1}
  m_Children:
  - {fileID: 4185271546936292}
  m_Father: {fileID: 0}
  m_RootOrder: 0
  m_LocalEulerAnglesHint: {x: 0, y: 0, z: 0}
--- !u!114 &114632090296148430
MonoBehaviour:
  m_ObjectHideFlags: 0
  m_CorrespondingSourceObject: {fileID: 0}
  m_PrefabInternal: {fileID: 0}
  m_GameObject: {fileID: 0}
  m_Enabled: 1
  m_EditorHideFlags: 1
  m_Script: {fileID: 12395, guid: 0000000000000000e000000000000000, type: 0}
  m_Name: Palette Settings
  m_EditorClassIdentifier: 
  cellSizing: 100
--- !u!156049354 &2569400265902863078
Grid:
  m_ObjectHideFlags: 1
  m_CorrespondingSourceObject: {fileID: 0}
  m_PrefabInternal: {fileID: 100100000}
  m_GameObject: {fileID: 1387199557540050}
  m_Enabled: 1
  m_CellSize: {x: 10, y: 10, z: 0}
  m_CellGap: {x: 0, y: 0, z: 0}
  m_CellLayout: 0
  m_CellSwizzle: 0
--- !u!483693784 &3664157346280047578
TilemapRenderer:
  m_ObjectHideFlags: 1
  m_CorrespondingSourceObject: {fileID: 0}
  m_PrefabInternal: {fileID: 100100000}
  m_GameObject: {fileID: 1324888684705316}
  m_Enabled: 0
  m_CastShadows: 0
  m_ReceiveShadows: 0
  m_DynamicOccludee: 0
  m_MotionVectors: 1
  m_LightProbeUsage: 0
  m_ReflectionProbeUsage: 0
  m_RenderingLayerMask: 4294967295
  m_Materials:
  - {fileID: 10754, guid: 0000000000000000f000000000000000, type: 0}
  m_StaticBatchInfo:
    firstSubMesh: 0
    subMeshCount: 0
  m_StaticBatchRoot: {fileID: 0}
  m_ProbeAnchor: {fileID: 0}
  m_LightProbeVolumeOverride: {fileID: 0}
  m_ScaleInLightmap: 1
  m_PreserveUVs: 0
  m_IgnoreNormalsForChartDetection: 0
  m_ImportantGI: 0
  m_StitchLightmapSeams: 0
  m_SelectedEditorRenderState: 0
  m_MinimumChartSize: 4
  m_AutoUVMaxDistance: 0.5
  m_AutoUVMaxAngle: 89
  m_LightmapParameters: {fileID: 0}
  m_SortingLayerID: 0
  m_SortingLayer: 0
  m_SortingOrder: 0
  m_ChunkSize: {x: 32, y: 32, z: 32}
  m_ChunkCullingBounds: {x: 1.56, y: 1.56, z: 0}
  m_MaxChunkCount: 16
  m_MaxFrameAge: 16
  m_SortOrder: 0
  m_DetectChunkCullingBounds: 0
  m_MaskInteraction: 0
--- !u!1839735485 &8195094281887025692
Tilemap:
  m_ObjectHideFlags: 1
  m_CorrespondingSourceObject: {fileID: 0}
  m_PrefabInternal: {fileID: 100100000}
  m_GameObject: {fileID: 1324888684705316}
  m_Enabled: 1
  m_Tiles:
  - first: {x: -1, y: -4, z: 0}
    second:
      m_TileIndex: 24
      m_TileSpriteIndex: 24
      m_TileMatrixIndex: 0
      m_TileColorIndex: 0
      m_ObjectToInstantiate: {fileID: 0}
      m_TileFlags: 1
      m_ColliderType: 1
  - first: {x: -1, y: -3, z: 0}
    second:
      m_TileIndex: 18
      m_TileSpriteIndex: 18
      m_TileMatrixIndex: 0
      m_TileColorIndex: 0
      m_ObjectToInstantiate: {fileID: 0}
      m_TileFlags: 1
      m_ColliderType: 1
  - first: {x: 0, y: -3, z: 0}
    second:
      m_TileIndex: 19
      m_TileSpriteIndex: 19
      m_TileMatrixIndex: 0
      m_TileColorIndex: 0
      m_ObjectToInstantiate: {fileID: 0}
      m_TileFlags: 1
      m_ColliderType: 1
  - first: {x: 1, y: -3, z: 0}
    second:
      m_TileIndex: 20
      m_TileSpriteIndex: 20
      m_TileMatrixIndex: 0
      m_TileColorIndex: 0
      m_ObjectToInstantiate: {fileID: 0}
      m_TileFlags: 1
      m_ColliderType: 1
  - first: {x: 2, y: -3, z: 0}
    second:
      m_TileIndex: 21
      m_TileSpriteIndex: 21
      m_TileMatrixIndex: 0
      m_TileColorIndex: 0
      m_ObjectToInstantiate: {fileID: 0}
      m_TileFlags: 1
      m_ColliderType: 1
  - first: {x: 3, y: -3, z: 0}
    second:
      m_TileIndex: 22
      m_TileSpriteIndex: 22
      m_TileMatrixIndex: 0
      m_TileColorIndex: 0
      m_ObjectToInstantiate: {fileID: 0}
      m_TileFlags: 1
      m_ColliderType: 1
  - first: {x: 4, y: -3, z: 0}
    second:
      m_TileIndex: 23
      m_TileSpriteIndex: 23
      m_TileMatrixIndex: 0
      m_TileColorIndex: 0
      m_ObjectToInstantiate: {fileID: 0}
      m_TileFlags: 1
      m_ColliderType: 1
  - first: {x: -1, y: -2, z: 0}
    second:
      m_TileIndex: 12
      m_TileSpriteIndex: 12
      m_TileMatrixIndex: 0
      m_TileColorIndex: 0
      m_ObjectToInstantiate: {fileID: 0}
      m_TileFlags: 1
      m_ColliderType: 1
  - first: {x: 0, y: -2, z: 0}
    second:
      m_TileIndex: 13
      m_TileSpriteIndex: 13
      m_TileMatrixIndex: 0
      m_TileColorIndex: 0
      m_ObjectToInstantiate: {fileID: 0}
      m_TileFlags: 1
      m_ColliderType: 1
  - first: {x: 1, y: -2, z: 0}
    second:
      m_TileIndex: 14
      m_TileSpriteIndex: 14
      m_TileMatrixIndex: 0
      m_TileColorIndex: 0
      m_ObjectToInstantiate: {fileID: 0}
      m_TileFlags: 1
      m_ColliderType: 1
  - first: {x: 2, y: -2, z: 0}
    second:
      m_TileIndex: 15
      m_TileSpriteIndex: 15
      m_TileMatrixIndex: 0
      m_TileColorIndex: 0
      m_ObjectToInstantiate: {fileID: 0}
      m_TileFlags: 1
      m_ColliderType: 1
  - first: {x: 3, y: -2, z: 0}
    second:
      m_TileIndex: 16
      m_TileSpriteIndex: 16
      m_TileMatrixIndex: 0
      m_TileColorIndex: 0
      m_ObjectToInstantiate: {fileID: 0}
      m_TileFlags: 1
      m_ColliderType: 1
  - first: {x: 4, y: -2, z: 0}
    second:
      m_TileIndex: 17
      m_TileSpriteIndex: 17
      m_TileMatrixIndex: 0
      m_TileColorIndex: 0
      m_ObjectToInstantiate: {fileID: 0}
      m_TileFlags: 1
      m_ColliderType: 1
  - first: {x: -1, y: -1, z: 0}
    second:
      m_TileIndex: 6
      m_TileSpriteIndex: 6
      m_TileMatrixIndex: 0
      m_TileColorIndex: 0
      m_ObjectToInstantiate: {fileID: 0}
      m_TileFlags: 1
      m_ColliderType: 1
  - first: {x: 0, y: -1, z: 0}
    second:
      m_TileIndex: 7
      m_TileSpriteIndex: 7
      m_TileMatrixIndex: 0
      m_TileColorIndex: 0
      m_ObjectToInstantiate: {fileID: 0}
      m_TileFlags: 1
      m_ColliderType: 1
  - first: {x: 1, y: -1, z: 0}
    second:
      m_TileIndex: 8
      m_TileSpriteIndex: 8
      m_TileMatrixIndex: 0
      m_TileColorIndex: 0
      m_ObjectToInstantiate: {fileID: 0}
      m_TileFlags: 1
      m_ColliderType: 1
  - first: {x: 2, y: -1, z: 0}
    second:
      m_TileIndex: 9
      m_TileSpriteIndex: 9
      m_TileMatrixIndex: 0
      m_TileColorIndex: 0
      m_ObjectToInstantiate: {fileID: 0}
      m_TileFlags: 1
      m_ColliderType: 1
  - first: {x: 3, y: -1, z: 0}
    second:
      m_TileIndex: 10
      m_TileSpriteIndex: 10
      m_TileMatrixIndex: 0
      m_TileColorIndex: 0
      m_ObjectToInstantiate: {fileID: 0}
      m_TileFlags: 1
      m_ColliderType: 1
  - first: {x: 4, y: -1, z: 0}
    second:
      m_TileIndex: 11
      m_TileSpriteIndex: 11
      m_TileMatrixIndex: 0
      m_TileColorIndex: 0
      m_ObjectToInstantiate: {fileID: 0}
      m_TileFlags: 1
      m_ColliderType: 1
  - first: {x: -1, y: 0, z: 0}
    second:
      m_TileIndex: 0
      m_TileSpriteIndex: 0
      m_TileMatrixIndex: 0
      m_TileColorIndex: 0
      m_ObjectToInstantiate: {fileID: 0}
      m_TileFlags: 1
      m_ColliderType: 1
  - first: {x: 0, y: 0, z: 0}
    second:
      m_TileIndex: 1
      m_TileSpriteIndex: 1
      m_TileMatrixIndex: 0
      m_TileColorIndex: 0
      m_ObjectToInstantiate: {fileID: 0}
      m_TileFlags: 1
      m_ColliderType: 1
  - first: {x: 1, y: 0, z: 0}
    second:
      m_TileIndex: 2
      m_TileSpriteIndex: 2
      m_TileMatrixIndex: 0
      m_TileColorIndex: 0
      m_ObjectToInstantiate: {fileID: 0}
      m_TileFlags: 1
      m_ColliderType: 1
  - first: {x: 2, y: 0, z: 0}
    second:
      m_TileIndex: 3
      m_TileSpriteIndex: 3
      m_TileMatrixIndex: 0
      m_TileColorIndex: 0
      m_ObjectToInstantiate: {fileID: 0}
      m_TileFlags: 1
      m_ColliderType: 1
  - first: {x: 3, y: 0, z: 0}
    second:
      m_TileIndex: 4
      m_TileSpriteIndex: 4
      m_TileMatrixIndex: 0
      m_TileColorIndex: 0
      m_ObjectToInstantiate: {fileID: 0}
      m_TileFlags: 1
      m_ColliderType: 1
  - first: {x: 4, y: 0, z: 0}
    second:
      m_TileIndex: 5
      m_TileSpriteIndex: 5
      m_TileMatrixIndex: 0
      m_TileColorIndex: 0
      m_ObjectToInstantiate: {fileID: 0}
      m_TileFlags: 1
      m_ColliderType: 1
  m_AnimatedTiles: {}
  m_TileAssetArray:
  - m_RefCount: 1
    m_Data: {fileID: 11400000, guid: 25978d2064ada834db9afd569e112539, type: 2}
  - m_RefCount: 1
    m_Data: {fileID: 11400000, guid: 1f40c498c9150024385afdee811e4968, type: 2}
  - m_RefCount: 1
    m_Data: {fileID: 11400000, guid: b9228627d7d555d4da37bc65e65fa8c5, type: 2}
  - m_RefCount: 1
    m_Data: {fileID: 11400000, guid: a6dce6ec8237bec49a3604932f821b7a, type: 2}
  - m_RefCount: 1
    m_Data: {fileID: 11400000, guid: 56195358ba8666448abdd1deb982f907, type: 2}
  - m_RefCount: 1
    m_Data: {fileID: 11400000, guid: f126b671482813943b97541c8f22bbe6, type: 2}
  - m_RefCount: 1
    m_Data: {fileID: 11400000, guid: 6ef50b374496b8d49b71ffe4325c315f, type: 2}
  - m_RefCount: 1
    m_Data: {fileID: 11400000, guid: 30a682f324d997545b3f123f8484d232, type: 2}
  - m_RefCount: 1
    m_Data: {fileID: 11400000, guid: 607b2a84d666f1b4a83e05ca6aae1b4b, type: 2}
  - m_RefCount: 1
    m_Data: {fileID: 11400000, guid: 7530110917b3aab4cbf1fe7832d72719, type: 2}
  - m_RefCount: 1
    m_Data: {fileID: 11400000, guid: 0248c2f20363a3641a63f957ad34cae0, type: 2}
  - m_RefCount: 1
    m_Data: {fileID: 11400000, guid: bec783e8735020a409c78a0594011710, type: 2}
  - m_RefCount: 1
    m_Data: {fileID: 11400000, guid: 2b6c7e54833f76b42b47509423d8a5fa, type: 2}
  - m_RefCount: 1
    m_Data: {fileID: 11400000, guid: 647ee303368f1914da6d13d637e7eab6, type: 2}
  - m_RefCount: 1
    m_Data: {fileID: 11400000, guid: 9a18d1628f381c54aa208559302aa050, type: 2}
  - m_RefCount: 1
    m_Data: {fileID: 11400000, guid: 77dc65742cc7c134485afcc10698442a, type: 2}
  - m_RefCount: 1
    m_Data: {fileID: 11400000, guid: 12a33acd8e187fa4abd6c387d78c3903, type: 2}
  - m_RefCount: 1
    m_Data: {fileID: 11400000, guid: 54d73116780cb2445996c1982ad059b7, type: 2}
  - m_RefCount: 1
    m_Data: {fileID: 11400000, guid: 1699965e0214b6b4ba85445309dea802, type: 2}
  - m_RefCount: 1
    m_Data: {fileID: 11400000, guid: cb5d435b9629b9d4b8b3dccafd40719c, type: 2}
  - m_RefCount: 1
    m_Data: {fileID: 11400000, guid: a0f0682e60c929a449be0b5230458dd6, type: 2}
  - m_RefCount: 1
    m_Data: {fileID: 11400000, guid: 82ab897c832f9f745aaadb8b14f8eb24, type: 2}
  - m_RefCount: 1
    m_Data: {fileID: 11400000, guid: 267f43712d823c043a569b40e35a69b2, type: 2}
  - m_RefCount: 1
    m_Data: {fileID: 11400000, guid: 86ec960b4cfb0ea48a33c8ad37df217f, type: 2}
  - m_RefCount: 1
    m_Data: {fileID: 11400000, guid: 2a3a6400ea0ef124eaf8b3aa0eb6a703, type: 2}
  m_TileSpriteArray:
  - m_RefCount: 1
    m_Data: {fileID: 21300000, guid: b48dce9e460340a4a806f61a9a7534c5, type: 3}
  - m_RefCount: 1
    m_Data: {fileID: 21300000, guid: 793fb6f265e685946893f9eb77e1eba8, type: 3}
  - m_RefCount: 1
    m_Data: {fileID: 21300000, guid: 418bdd8095b73114c99a7461310c186c, type: 3}
  - m_RefCount: 1
    m_Data: {fileID: 21300000, guid: 25556cf827f1e77408b689bfc7d108dc, type: 3}
  - m_RefCount: 1
    m_Data: {fileID: 21300000, guid: f70fd1b28ab0acf46a563993d1b4018c, type: 3}
  - m_RefCount: 1
    m_Data: {fileID: 21300000, guid: c64c0718078145146ab96b9844afbd70, type: 3}
  - m_RefCount: 1
    m_Data: {fileID: 21300000, guid: 507580f4ab25bea4e8ed262f5dc3efb9, type: 3}
  - m_RefCount: 1
    m_Data: {fileID: 21300000, guid: 1dde75c15d6d9d14da1909c31055ea50, type: 3}
  - m_RefCount: 1
    m_Data: {fileID: 21300000, guid: e57dfe25185b7534a9bb95ffc5e903be, type: 3}
  - m_RefCount: 1
    m_Data: {fileID: 21300000, guid: 82ba29c543fb3f940b757932768859e9, type: 3}
  - m_RefCount: 1
    m_Data: {fileID: 21300000, guid: 484d2e3ad9ba87a47a07dc3c52300246, type: 3}
  - m_RefCount: 1
    m_Data: {fileID: 21300000, guid: 2591e33615758cf409fc10380b27f03b, type: 3}
  - m_RefCount: 1
    m_Data: {fileID: 21300000, guid: c23f247930e0146479600fd2c8621175, type: 3}
  - m_RefCount: 1
    m_Data: {fileID: 21300000, guid: af4eafb92db403f4ca066570b430fc57, type: 3}
  - m_RefCount: 1
    m_Data: {fileID: 21300000, guid: 86d25baa0ab106f4cbae3d0d5e2797a6, type: 3}
  - m_RefCount: 1
    m_Data: {fileID: 21300000, guid: 42deb6b4f2af7114ab7747e02fa3996e, type: 3}
  - m_RefCount: 1
    m_Data: {fileID: 21300000, guid: 58954b82b4c51b5488cb839a6b953810, type: 3}
  - m_RefCount: 1
    m_Data: {fileID: 21300000, guid: 920512a5a64f69048a28d123e3287a53, type: 3}
  - m_RefCount: 1
    m_Data: {fileID: 21300000, guid: aa491d1f2f29ccc469fa311096d22362, type: 3}
  - m_RefCount: 1
    m_Data: {fileID: 21300000, guid: 48a436cafff07f04a81f838802a7e0c1, type: 3}
  - m_RefCount: 1
    m_Data: {fileID: 21300000, guid: 3abc7962f0dc88548aabb943dab4e173, type: 3}
  - m_RefCount: 1
    m_Data: {fileID: 21300000, guid: 385a80bc81aa01242b9c73b51bcbc9ef, type: 3}
  - m_RefCount: 1
    m_Data: {fileID: 21300000, guid: 9214f180317bec8439a23330c7bbfbba, type: 3}
  - m_RefCount: 1
    m_Data: {fileID: 21300000, guid: 0404766805c961a469a6964bcd1fc396, type: 3}
  - m_RefCount: 1
    m_Data: {fileID: 21300000, guid: 3dd8602f09170f24288ad3cc8b4a488e, type: 3}
  m_TileMatrixArray:
  - m_RefCount: 25
    m_Data:
      e00: 1
      e01: 0
      e02: 0
      e03: 0
      e10: 0
      e11: 1
      e12: 0
      e13: 0
      e20: 0
      e21: 0
      e22: 1
      e23: 0
      e30: 0
      e31: 0
      e32: 0
      e33: 1
  m_TileColorArray:
  - m_RefCount: 25
    m_Data: {r: 1, g: 1, b: 1, a: 1}
  m_AnimationFrameRate: 1
  m_Color: {r: 1, g: 1, b: 1, a: 1}
  m_Origin: {x: -1, y: -4, z: 0}
  m_Size: {x: 6, y: 5, z: 1}
  m_TileAnchor: {x: 0.5, y: 0.5, z: 0}
  m_TileOrientation: 0
  m_TileOrientationMatrix:
    e00: 1
    e01: 0
    e02: 0
    e03: 0
    e10: 0
    e11: 1
    e12: 0
    e13: 0
    e20: 0
    e21: 0
    e22: 1
    e23: 0
    e30: 0
    e31: 0
    e32: 0
    e33: 1
