%YAML 1.1
%TAG !u! tag:unity3d.com,2011:
--- !u!1001 &100100000
Prefab:
  m_ObjectHideFlags: 1
  serializedVersion: 2
  m_Modification:
    m_TransformParent: {fileID: 0}
    m_Modifications: []
    m_RemovedComponents: []
  m_SourcePrefab: {fileID: 0}
  m_RootGameObject: {fileID: 1069245930383130}
  m_IsPrefabAsset: 1
--- !u!1 &1069245930383130
GameObject:
  m_ObjectHideFlags: 0
  m_CorrespondingSourceObject: {fileID: 0}
  m_PrefabInternal: {fileID: 100100000}
  serializedVersion: 6
  m_Component:
  - component: {fileID: 4801361174386332}
  - component: {fileID: 2569400268335731818}
  m_Layer: 31
  m_Name: SilhouetteTiles
  m_TagString: Untagged
  m_Icon: {fileID: 0}
  m_NavMeshLayer: 0
  m_StaticEditorFlags: 0
  m_IsActive: 1
--- !u!1 &1468671541578318
GameObject:
  m_ObjectHideFlags: 0
  m_CorrespondingSourceObject: {fileID: 0}
  m_PrefabInternal: {fileID: 100100000}
  serializedVersion: 6
  m_Component:
  - component: {fileID: 4179655815164536}
  - component: {fileID: 8195094281516989816}
  - component: {fileID: 3664157344488112710}
  m_Layer: 31
  m_Name: Layer1
  m_TagString: Untagged
  m_Icon: {fileID: 0}
  m_NavMeshLayer: 0
  m_StaticEditorFlags: 0
  m_IsActive: 1
--- !u!4 &4179655815164536
Transform:
  m_ObjectHideFlags: 1
  m_CorrespondingSourceObject: {fileID: 0}
  m_PrefabInternal: {fileID: 100100000}
  m_GameObject: {fileID: 1468671541578318}
  m_LocalRotation: {x: -0, y: -0, z: -0, w: 1}
  m_LocalPosition: {x: 0, y: 0, z: 0}
  m_LocalScale: {x: 1, y: 1, z: 1}
  m_Children: []
  m_Father: {fileID: 4801361174386332}
  m_RootOrder: 0
  m_LocalEulerAnglesHint: {x: 0, y: 0, z: 0}
--- !u!4 &4801361174386332
Transform:
  m_ObjectHideFlags: 1
  m_CorrespondingSourceObject: {fileID: 0}
  m_PrefabInternal: {fileID: 100100000}
  m_GameObject: {fileID: 1069245930383130}
  m_LocalRotation: {x: 0, y: 0, z: 0, w: 1}
  m_LocalPosition: {x: 0, y: 0, z: 0}
  m_LocalScale: {x: 1, y: 1, z: 1}
  m_Children:
  - {fileID: 4179655815164536}
  m_Father: {fileID: 0}
  m_RootOrder: 0
  m_LocalEulerAnglesHint: {x: 0, y: 0, z: 0}
--- !u!114 &114469766401745256
MonoBehaviour:
  m_ObjectHideFlags: 0
  m_CorrespondingSourceObject: {fileID: 0}
  m_PrefabInternal: {fileID: 0}
  m_GameObject: {fileID: 0}
  m_Enabled: 1
  m_EditorHideFlags: 1
  m_Script: {fileID: 12395, guid: 0000000000000000e000000000000000, type: 0}
  m_Name: Palette Settings
  m_EditorClassIdentifier: 
  cellSizing: 100
--- !u!156049354 &2569400268335731818
Grid:
  m_ObjectHideFlags: 1
  m_CorrespondingSourceObject: {fileID: 0}
  m_PrefabInternal: {fileID: 100100000}
  m_GameObject: {fileID: 1069245930383130}
  m_Enabled: 1
  m_CellSize: {x: 10, y: 10, z: 0}
  m_CellGap: {x: 0, y: 0, z: 0}
  m_CellLayout: 0
  m_CellSwizzle: 0
--- !u!483693784 &3664157344488112710
TilemapRenderer:
  m_ObjectHideFlags: 1
  m_CorrespondingSourceObject: {fileID: 0}
  m_PrefabInternal: {fileID: 100100000}
  m_GameObject: {fileID: 1468671541578318}
  m_Enabled: 0
  m_CastShadows: 0
  m_ReceiveShadows: 0
  m_DynamicOccludee: 0
  m_MotionVectors: 1
  m_LightProbeUsage: 0
  m_ReflectionProbeUsage: 0
  m_RenderingLayerMask: 4294967295
  m_Materials:
  - {fileID: 10754, guid: 0000000000000000f000000000000000, type: 0}
  m_StaticBatchInfo:
    firstSubMesh: 0
    subMeshCount: 0
  m_StaticBatchRoot: {fileID: 0}
  m_ProbeAnchor: {fileID: 0}
  m_LightProbeVolumeOverride: {fileID: 0}
  m_ScaleInLightmap: 1
  m_PreserveUVs: 0
  m_IgnoreNormalsForChartDetection: 0
  m_ImportantGI: 0
  m_StitchLightmapSeams: 0
  m_SelectedEditorRenderState: 0
  m_MinimumChartSize: 4
  m_AutoUVMaxDistance: 0.5
  m_AutoUVMaxAngle: 89
  m_LightmapParameters: {fileID: 0}
  m_SortingLayerID: 0
  m_SortingLayer: 0
  m_SortingOrder: 0
  m_ChunkSize: {x: 32, y: 32, z: 32}
  m_ChunkCullingBounds: {x: 0, y: 0, z: 0}
  m_MaxChunkCount: 16
  m_MaxFrameAge: 16
  m_SortOrder: 0
  m_DetectChunkCullingBounds: 0
  m_MaskInteraction: 0
--- !u!1839735485 &8195094281516989816
Tilemap:
  m_ObjectHideFlags: 1
  m_CorrespondingSourceObject: {fileID: 0}
  m_PrefabInternal: {fileID: 100100000}
  m_GameObject: {fileID: 1468671541578318}
  m_Enabled: 1
  m_Tiles:
  - first: {x: -1, y: -7, z: 0}
    second:
      m_TileIndex: 63
      m_TileSpriteIndex: 63
      m_TileMatrixIndex: 0
      m_TileColorIndex: 0
      m_ObjectToInstantiate: {fileID: 0}
      m_TileFlags: 1
      m_ColliderType: 1
  - first: {x: 0, y: -7, z: 0}
    second:
      m_TileIndex: 64
      m_TileSpriteIndex: 64
      m_TileMatrixIndex: 0
      m_TileColorIndex: 0
      m_ObjectToInstantiate: {fileID: 0}
      m_TileFlags: 1
      m_ColliderType: 1
  - first: {x: 1, y: -7, z: 0}
    second:
      m_TileIndex: 65
      m_TileSpriteIndex: 65
      m_TileMatrixIndex: 0
      m_TileColorIndex: 0
      m_ObjectToInstantiate: {fileID: 0}
      m_TileFlags: 1
      m_ColliderType: 1
  - first: {x: 2, y: -7, z: 0}
    second:
      m_TileIndex: 66
      m_TileSpriteIndex: 66
      m_TileMatrixIndex: 0
      m_TileColorIndex: 0
      m_ObjectToInstantiate: {fileID: 0}
      m_TileFlags: 1
      m_ColliderType: 1
  - first: {x: 3, y: -7, z: 0}
    second:
      m_TileIndex: 67
      m_TileSpriteIndex: 67
      m_TileMatrixIndex: 0
      m_TileColorIndex: 0
      m_ObjectToInstantiate: {fileID: 0}
      m_TileFlags: 1
      m_ColliderType: 1
  - first: {x: -1, y: -6, z: 0}
    second:
      m_TileIndex: 54
      m_TileSpriteIndex: 54
      m_TileMatrixIndex: 0
      m_TileColorIndex: 0
      m_ObjectToInstantiate: {fileID: 0}
      m_TileFlags: 1
      m_ColliderType: 1
  - first: {x: 0, y: -6, z: 0}
    second:
      m_TileIndex: 55
      m_TileSpriteIndex: 55
      m_TileMatrixIndex: 0
      m_TileColorIndex: 0
      m_ObjectToInstantiate: {fileID: 0}
      m_TileFlags: 1
      m_ColliderType: 1
  - first: {x: 1, y: -6, z: 0}
    second:
      m_TileIndex: 56
      m_TileSpriteIndex: 56
      m_TileMatrixIndex: 0
      m_TileColorIndex: 0
      m_ObjectToInstantiate: {fileID: 0}
      m_TileFlags: 1
      m_ColliderType: 1
  - first: {x: 2, y: -6, z: 0}
    second:
      m_TileIndex: 57
      m_TileSpriteIndex: 57
      m_TileMatrixIndex: 0
      m_TileColorIndex: 0
      m_ObjectToInstantiate: {fileID: 0}
      m_TileFlags: 1
      m_ColliderType: 1
  - first: {x: 3, y: -6, z: 0}
    second:
      m_TileIndex: 58
      m_TileSpriteIndex: 58
      m_TileMatrixIndex: 0
      m_TileColorIndex: 0
      m_ObjectToInstantiate: {fileID: 0}
      m_TileFlags: 1
      m_ColliderType: 1
  - first: {x: 4, y: -6, z: 0}
    second:
      m_TileIndex: 59
      m_TileSpriteIndex: 59
      m_TileMatrixIndex: 0
      m_TileColorIndex: 0
      m_ObjectToInstantiate: {fileID: 0}
      m_TileFlags: 1
      m_ColliderType: 1
  - first: {x: 5, y: -6, z: 0}
    second:
      m_TileIndex: 60
      m_TileSpriteIndex: 60
      m_TileMatrixIndex: 0
      m_TileColorIndex: 0
      m_ObjectToInstantiate: {fileID: 0}
      m_TileFlags: 1
      m_ColliderType: 1
  - first: {x: 6, y: -6, z: 0}
    second:
      m_TileIndex: 61
      m_TileSpriteIndex: 61
      m_TileMatrixIndex: 0
      m_TileColorIndex: 0
      m_ObjectToInstantiate: {fileID: 0}
      m_TileFlags: 1
      m_ColliderType: 1
  - first: {x: 7, y: -6, z: 0}
    second:
      m_TileIndex: 62
      m_TileSpriteIndex: 62
      m_TileMatrixIndex: 0
      m_TileColorIndex: 0
      m_ObjectToInstantiate: {fileID: 0}
      m_TileFlags: 1
      m_ColliderType: 1
  - first: {x: -1, y: -5, z: 0}
    second:
      m_TileIndex: 45
      m_TileSpriteIndex: 45
      m_TileMatrixIndex: 0
      m_TileColorIndex: 0
      m_ObjectToInstantiate: {fileID: 0}
      m_TileFlags: 1
      m_ColliderType: 1
  - first: {x: 0, y: -5, z: 0}
    second:
      m_TileIndex: 46
      m_TileSpriteIndex: 46
      m_TileMatrixIndex: 0
      m_TileColorIndex: 0
      m_ObjectToInstantiate: {fileID: 0}
      m_TileFlags: 1
      m_ColliderType: 1
  - first: {x: 1, y: -5, z: 0}
    second:
      m_TileIndex: 47
      m_TileSpriteIndex: 47
      m_TileMatrixIndex: 0
      m_TileColorIndex: 0
      m_ObjectToInstantiate: {fileID: 0}
      m_TileFlags: 1
      m_ColliderType: 1
  - first: {x: 2, y: -5, z: 0}
    second:
      m_TileIndex: 48
      m_TileSpriteIndex: 48
      m_TileMatrixIndex: 0
      m_TileColorIndex: 0
      m_ObjectToInstantiate: {fileID: 0}
      m_TileFlags: 1
      m_ColliderType: 1
  - first: {x: 3, y: -5, z: 0}
    second:
      m_TileIndex: 49
      m_TileSpriteIndex: 49
      m_TileMatrixIndex: 0
      m_TileColorIndex: 0
      m_ObjectToInstantiate: {fileID: 0}
      m_TileFlags: 1
      m_ColliderType: 1
  - first: {x: 4, y: -5, z: 0}
    second:
      m_TileIndex: 50
      m_TileSpriteIndex: 50
      m_TileMatrixIndex: 0
      m_TileColorIndex: 0
      m_ObjectToInstantiate: {fileID: 0}
      m_TileFlags: 1
      m_ColliderType: 1
  - first: {x: 5, y: -5, z: 0}
    second:
      m_TileIndex: 51
      m_TileSpriteIndex: 51
      m_TileMatrixIndex: 0
      m_TileColorIndex: 0
      m_ObjectToInstantiate: {fileID: 0}
      m_TileFlags: 1
      m_ColliderType: 1
  - first: {x: 6, y: -5, z: 0}
    second:
      m_TileIndex: 52
      m_TileSpriteIndex: 52
      m_TileMatrixIndex: 0
      m_TileColorIndex: 0
      m_ObjectToInstantiate: {fileID: 0}
      m_TileFlags: 1
      m_ColliderType: 1
  - first: {x: 7, y: -5, z: 0}
    second:
      m_TileIndex: 53
      m_TileSpriteIndex: 53
      m_TileMatrixIndex: 0
      m_TileColorIndex: 0
      m_ObjectToInstantiate: {fileID: 0}
      m_TileFlags: 1
      m_ColliderType: 1
  - first: {x: -1, y: -4, z: 0}
    second:
      m_TileIndex: 36
      m_TileSpriteIndex: 36
      m_TileMatrixIndex: 0
      m_TileColorIndex: 0
      m_ObjectToInstantiate: {fileID: 0}
      m_TileFlags: 1
      m_ColliderType: 1
  - first: {x: 0, y: -4, z: 0}
    second:
      m_TileIndex: 37
      m_TileSpriteIndex: 37
      m_TileMatrixIndex: 0
      m_TileColorIndex: 0
      m_ObjectToInstantiate: {fileID: 0}
      m_TileFlags: 1
      m_ColliderType: 1
  - first: {x: 1, y: -4, z: 0}
    second:
      m_TileIndex: 38
      m_TileSpriteIndex: 38
      m_TileMatrixIndex: 0
      m_TileColorIndex: 0
      m_ObjectToInstantiate: {fileID: 0}
      m_TileFlags: 1
      m_ColliderType: 1
  - first: {x: 2, y: -4, z: 0}
    second:
      m_TileIndex: 39
      m_TileSpriteIndex: 39
      m_TileMatrixIndex: 0
      m_TileColorIndex: 0
      m_ObjectToInstantiate: {fileID: 0}
      m_TileFlags: 1
      m_ColliderType: 1
  - first: {x: 3, y: -4, z: 0}
    second:
      m_TileIndex: 40
      m_TileSpriteIndex: 40
      m_TileMatrixIndex: 0
      m_TileColorIndex: 0
      m_ObjectToInstantiate: {fileID: 0}
      m_TileFlags: 1
      m_ColliderType: 1
  - first: {x: 4, y: -4, z: 0}
    second:
      m_TileIndex: 41
      m_TileSpriteIndex: 41
      m_TileMatrixIndex: 0
      m_TileColorIndex: 0
      m_ObjectToInstantiate: {fileID: 0}
      m_TileFlags: 1
      m_ColliderType: 1
  - first: {x: 5, y: -4, z: 0}
    second:
      m_TileIndex: 42
      m_TileSpriteIndex: 42
      m_TileMatrixIndex: 0
      m_TileColorIndex: 0
      m_ObjectToInstantiate: {fileID: 0}
      m_TileFlags: 1
      m_ColliderType: 1
  - first: {x: 6, y: -4, z: 0}
    second:
      m_TileIndex: 43
      m_TileSpriteIndex: 43
      m_TileMatrixIndex: 0
      m_TileColorIndex: 0
      m_ObjectToInstantiate: {fileID: 0}
      m_TileFlags: 1
      m_ColliderType: 1
  - first: {x: 7, y: -4, z: 0}
    second:
      m_TileIndex: 44
      m_TileSpriteIndex: 44
      m_TileMatrixIndex: 0
      m_TileColorIndex: 0
      m_ObjectToInstantiate: {fileID: 0}
      m_TileFlags: 1
      m_ColliderType: 1
  - first: {x: -1, y: -3, z: 0}
    second:
      m_TileIndex: 27
      m_TileSpriteIndex: 27
      m_TileMatrixIndex: 0
      m_TileColorIndex: 0
      m_ObjectToInstantiate: {fileID: 0}
      m_TileFlags: 1
      m_ColliderType: 1
  - first: {x: 0, y: -3, z: 0}
    second:
      m_TileIndex: 28
      m_TileSpriteIndex: 28
      m_TileMatrixIndex: 0
      m_TileColorIndex: 0
      m_ObjectToInstantiate: {fileID: 0}
      m_TileFlags: 1
      m_ColliderType: 1
  - first: {x: 1, y: -3, z: 0}
    second:
      m_TileIndex: 29
      m_TileSpriteIndex: 29
      m_TileMatrixIndex: 0
      m_TileColorIndex: 0
      m_ObjectToInstantiate: {fileID: 0}
      m_TileFlags: 1
      m_ColliderType: 1
  - first: {x: 2, y: -3, z: 0}
    second:
      m_TileIndex: 30
      m_TileSpriteIndex: 30
      m_TileMatrixIndex: 0
      m_TileColorIndex: 0
      m_ObjectToInstantiate: {fileID: 0}
      m_TileFlags: 1
      m_ColliderType: 1
  - first: {x: 3, y: -3, z: 0}
    second:
      m_TileIndex: 31
      m_TileSpriteIndex: 31
      m_TileMatrixIndex: 0
      m_TileColorIndex: 0
      m_ObjectToInstantiate: {fileID: 0}
      m_TileFlags: 1
      m_ColliderType: 1
  - first: {x: 4, y: -3, z: 0}
    second:
      m_TileIndex: 32
      m_TileSpriteIndex: 32
      m_TileMatrixIndex: 0
      m_TileColorIndex: 0
      m_ObjectToInstantiate: {fileID: 0}
      m_TileFlags: 1
      m_ColliderType: 1
  - first: {x: 5, y: -3, z: 0}
    second:
      m_TileIndex: 33
      m_TileSpriteIndex: 33
      m_TileMatrixIndex: 0
      m_TileColorIndex: 0
      m_ObjectToInstantiate: {fileID: 0}
      m_TileFlags: 1
      m_ColliderType: 1
  - first: {x: 6, y: -3, z: 0}
    second:
      m_TileIndex: 34
      m_TileSpriteIndex: 34
      m_TileMatrixIndex: 0
      m_TileColorIndex: 0
      m_ObjectToInstantiate: {fileID: 0}
      m_TileFlags: 1
      m_ColliderType: 1
  - first: {x: 7, y: -3, z: 0}
    second:
      m_TileIndex: 35
      m_TileSpriteIndex: 35
      m_TileMatrixIndex: 0
      m_TileColorIndex: 0
      m_ObjectToInstantiate: {fileID: 0}
      m_TileFlags: 1
      m_ColliderType: 1
  - first: {x: -1, y: -2, z: 0}
    second:
      m_TileIndex: 18
      m_TileSpriteIndex: 18
      m_TileMatrixIndex: 0
      m_TileColorIndex: 0
      m_ObjectToInstantiate: {fileID: 0}
      m_TileFlags: 1
      m_ColliderType: 1
  - first: {x: 0, y: -2, z: 0}
    second:
      m_TileIndex: 19
      m_TileSpriteIndex: 19
      m_TileMatrixIndex: 0
      m_TileColorIndex: 0
      m_ObjectToInstantiate: {fileID: 0}
      m_TileFlags: 1
      m_ColliderType: 1
  - first: {x: 1, y: -2, z: 0}
    second:
      m_TileIndex: 20
      m_TileSpriteIndex: 20
      m_TileMatrixIndex: 0
      m_TileColorIndex: 0
      m_ObjectToInstantiate: {fileID: 0}
      m_TileFlags: 1
      m_ColliderType: 1
  - first: {x: 2, y: -2, z: 0}
    second:
      m_TileIndex: 21
      m_TileSpriteIndex: 21
      m_TileMatrixIndex: 0
      m_TileColorIndex: 0
      m_ObjectToInstantiate: {fileID: 0}
      m_TileFlags: 1
      m_ColliderType: 1
  - first: {x: 3, y: -2, z: 0}
    second:
      m_TileIndex: 22
      m_TileSpriteIndex: 22
      m_TileMatrixIndex: 0
      m_TileColorIndex: 0
      m_ObjectToInstantiate: {fileID: 0}
      m_TileFlags: 1
      m_ColliderType: 1
  - first: {x: 4, y: -2, z: 0}
    second:
      m_TileIndex: 23
      m_TileSpriteIndex: 23
      m_TileMatrixIndex: 0
      m_TileColorIndex: 0
      m_ObjectToInstantiate: {fileID: 0}
      m_TileFlags: 1
      m_ColliderType: 1
  - first: {x: 5, y: -2, z: 0}
    second:
      m_TileIndex: 24
      m_TileSpriteIndex: 24
      m_TileMatrixIndex: 0
      m_TileColorIndex: 0
      m_ObjectToInstantiate: {fileID: 0}
      m_TileFlags: 1
      m_ColliderType: 1
  - first: {x: 6, y: -2, z: 0}
    second:
      m_TileIndex: 25
      m_TileSpriteIndex: 25
      m_TileMatrixIndex: 0
      m_TileColorIndex: 0
      m_ObjectToInstantiate: {fileID: 0}
      m_TileFlags: 1
      m_ColliderType: 1
  - first: {x: 7, y: -2, z: 0}
    second:
      m_TileIndex: 26
      m_TileSpriteIndex: 26
      m_TileMatrixIndex: 0
      m_TileColorIndex: 0
      m_ObjectToInstantiate: {fileID: 0}
      m_TileFlags: 1
      m_ColliderType: 1
  - first: {x: -1, y: -1, z: 0}
    second:
      m_TileIndex: 9
      m_TileSpriteIndex: 9
      m_TileMatrixIndex: 0
      m_TileColorIndex: 0
      m_ObjectToInstantiate: {fileID: 0}
      m_TileFlags: 1
      m_ColliderType: 1
  - first: {x: 0, y: -1, z: 0}
    second:
      m_TileIndex: 10
      m_TileSpriteIndex: 10
      m_TileMatrixIndex: 0
      m_TileColorIndex: 0
      m_ObjectToInstantiate: {fileID: 0}
      m_TileFlags: 1
      m_ColliderType: 1
  - first: {x: 1, y: -1, z: 0}
    second:
      m_TileIndex: 11
      m_TileSpriteIndex: 11
      m_TileMatrixIndex: 0
      m_TileColorIndex: 0
      m_ObjectToInstantiate: {fileID: 0}
      m_TileFlags: 1
      m_ColliderType: 1
  - first: {x: 2, y: -1, z: 0}
    second:
      m_TileIndex: 12
      m_TileSpriteIndex: 12
      m_TileMatrixIndex: 0
      m_TileColorIndex: 0
      m_ObjectToInstantiate: {fileID: 0}
      m_TileFlags: 1
      m_ColliderType: 1
  - first: {x: 3, y: -1, z: 0}
    second:
      m_TileIndex: 13
      m_TileSpriteIndex: 13
      m_TileMatrixIndex: 0
      m_TileColorIndex: 0
      m_ObjectToInstantiate: {fileID: 0}
      m_TileFlags: 1
      m_ColliderType: 1
  - first: {x: 4, y: -1, z: 0}
    second:
      m_TileIndex: 14
      m_TileSpriteIndex: 14
      m_TileMatrixIndex: 0
      m_TileColorIndex: 0
      m_ObjectToInstantiate: {fileID: 0}
      m_TileFlags: 1
      m_ColliderType: 1
  - first: {x: 5, y: -1, z: 0}
    second:
      m_TileIndex: 15
      m_TileSpriteIndex: 15
      m_TileMatrixIndex: 0
      m_TileColorIndex: 0
      m_ObjectToInstantiate: {fileID: 0}
      m_TileFlags: 1
      m_ColliderType: 1
  - first: {x: 6, y: -1, z: 0}
    second:
      m_TileIndex: 16
      m_TileSpriteIndex: 16
      m_TileMatrixIndex: 0
      m_TileColorIndex: 0
      m_ObjectToInstantiate: {fileID: 0}
      m_TileFlags: 1
      m_ColliderType: 1
  - first: {x: 7, y: -1, z: 0}
    second:
      m_TileIndex: 17
      m_TileSpriteIndex: 17
      m_TileMatrixIndex: 0
      m_TileColorIndex: 0
      m_ObjectToInstantiate: {fileID: 0}
      m_TileFlags: 1
      m_ColliderType: 1
  - first: {x: -1, y: 0, z: 0}
    second:
      m_TileIndex: 0
      m_TileSpriteIndex: 0
      m_TileMatrixIndex: 0
      m_TileColorIndex: 0
      m_ObjectToInstantiate: {fileID: 0}
      m_TileFlags: 1
      m_ColliderType: 1
  - first: {x: 0, y: 0, z: 0}
    second:
      m_TileIndex: 1
      m_TileSpriteIndex: 1
      m_TileMatrixIndex: 0
      m_TileColorIndex: 0
      m_ObjectToInstantiate: {fileID: 0}
      m_TileFlags: 1
      m_ColliderType: 1
  - first: {x: 1, y: 0, z: 0}
    second:
      m_TileIndex: 2
      m_TileSpriteIndex: 2
      m_TileMatrixIndex: 0
      m_TileColorIndex: 0
      m_ObjectToInstantiate: {fileID: 0}
      m_TileFlags: 1
      m_ColliderType: 1
  - first: {x: 2, y: 0, z: 0}
    second:
      m_TileIndex: 3
      m_TileSpriteIndex: 3
      m_TileMatrixIndex: 0
      m_TileColorIndex: 0
      m_ObjectToInstantiate: {fileID: 0}
      m_TileFlags: 1
      m_ColliderType: 1
  - first: {x: 3, y: 0, z: 0}
    second:
      m_TileIndex: 4
      m_TileSpriteIndex: 4
      m_TileMatrixIndex: 0
      m_TileColorIndex: 0
      m_ObjectToInstantiate: {fileID: 0}
      m_TileFlags: 1
      m_ColliderType: 1
  - first: {x: 4, y: 0, z: 0}
    second:
      m_TileIndex: 5
      m_TileSpriteIndex: 5
      m_TileMatrixIndex: 0
      m_TileColorIndex: 0
      m_ObjectToInstantiate: {fileID: 0}
      m_TileFlags: 1
      m_ColliderType: 1
  - first: {x: 5, y: 0, z: 0}
    second:
      m_TileIndex: 6
      m_TileSpriteIndex: 6
      m_TileMatrixIndex: 0
      m_TileColorIndex: 0
      m_ObjectToInstantiate: {fileID: 0}
      m_TileFlags: 1
      m_ColliderType: 1
  - first: {x: 6, y: 0, z: 0}
    second:
      m_TileIndex: 7
      m_TileSpriteIndex: 7
      m_TileMatrixIndex: 0
      m_TileColorIndex: 0
      m_ObjectToInstantiate: {fileID: 0}
      m_TileFlags: 1
      m_ColliderType: 1
  - first: {x: 7, y: 0, z: 0}
    second:
      m_TileIndex: 8
      m_TileSpriteIndex: 8
      m_TileMatrixIndex: 0
      m_TileColorIndex: 0
      m_ObjectToInstantiate: {fileID: 0}
      m_TileFlags: 1
      m_ColliderType: 1
  m_AnimatedTiles: {}
  m_TileAssetArray:
  - m_RefCount: 1
    m_Data: {fileID: 11400000, guid: 2f7d96f3151bb0041a97a5a7f394e0db, type: 2}
  - m_RefCount: 1
    m_Data: {fileID: 11400000, guid: 515ed63fb9220ce45ac35714900240ec, type: 2}
  - m_RefCount: 1
    m_Data: {fileID: 11400000, guid: 953f8d968a085db419c57047a74ac7d3, type: 2}
  - m_RefCount: 1
    m_Data: {fileID: 11400000, guid: 25db652de8741e14ea05e15d602bac62, type: 2}
  - m_RefCount: 1
    m_Data: {fileID: 11400000, guid: 895dc189e8bd9f04f87e29e93265daf7, type: 2}
  - m_RefCount: 1
    m_Data: {fileID: 11400000, guid: e788be7c324db624d9d27dba8fca4dc3, type: 2}
  - m_RefCount: 1
    m_Data: {fileID: 11400000, guid: dcd0c1c20f50bac41854aafe237989a6, type: 2}
  - m_RefCount: 1
    m_Data: {fileID: 11400000, guid: ec91ee60c4ec5874bb259117d2470b53, type: 2}
  - m_RefCount: 1
    m_Data: {fileID: 11400000, guid: e97cc85ed1a95f44a891e9ea0934c738, type: 2}
  - m_RefCount: 1
    m_Data: {fileID: 11400000, guid: df8eacb3a4141d44196f87c028264f39, type: 2}
  - m_RefCount: 1
    m_Data: {fileID: 11400000, guid: 0cf2f216b8409fd43af2096d2853fc24, type: 2}
  - m_RefCount: 1
    m_Data: {fileID: 11400000, guid: a572d5d1730998d48bdab8dc6a4de1cb, type: 2}
  - m_RefCount: 1
    m_Data: {fileID: 11400000, guid: c3ce859a990a2c242959ecc608acef6e, type: 2}
  - m_RefCount: 1
    m_Data: {fileID: 11400000, guid: 26719bfc2bc9c9a489b888b17f758d2a, type: 2}
  - m_RefCount: 1
    m_Data: {fileID: 11400000, guid: 8e470fb134c0eab409898e94ebf7148c, type: 2}
  - m_RefCount: 1
    m_Data: {fileID: 11400000, guid: d78bb4c0753d4f44bb524f2948abc165, type: 2}
  - m_RefCount: 1
    m_Data: {fileID: 11400000, guid: c9f6c39883d129f4187e53e0946d600f, type: 2}
  - m_RefCount: 1
    m_Data: {fileID: 11400000, guid: da02b1f5f4b07d84dba2c59fdd9e3b52, type: 2}
  - m_RefCount: 1
    m_Data: {fileID: 11400000, guid: d562dcc879696e248b15740ea78999c9, type: 2}
  - m_RefCount: 1
    m_Data: {fileID: 11400000, guid: 82bb4e512b3a25f47bdce6dd8227ab37, type: 2}
  - m_RefCount: 1
    m_Data: {fileID: 11400000, guid: 6baf26899e5b3514397b7178ee71fc1f, type: 2}
  - m_RefCount: 1
    m_Data: {fileID: 11400000, guid: 01d4b989f13ec264ca5571d026443d3b, type: 2}
  - m_RefCount: 1
    m_Data: {fileID: 11400000, guid: 9d48da7690c78b64b8ee6a6eb633951e, type: 2}
  - m_RefCount: 1
    m_Data: {fileID: 11400000, guid: 01ed154660e69ec4dbc42079b5100cc3, type: 2}
  - m_RefCount: 1
    m_Data: {fileID: 11400000, guid: ec3d942c5183aea42851ca14e7cb1307, type: 2}
  - m_RefCount: 1
    m_Data: {fileID: 11400000, guid: bc4e8b694f0d12640adf97589b3bc3b3, type: 2}
  - m_RefCount: 1
    m_Data: {fileID: 11400000, guid: ae6cfe4c70752c1499c6656db5c214dc, type: 2}
  - m_RefCount: 1
    m_Data: {fileID: 11400000, guid: 8b2bc6490d0b6d14799ff4c114837e85, type: 2}
  - m_RefCount: 1
    m_Data: {fileID: 11400000, guid: 0086d85f49e533f40b8e6fa1c7446c3e, type: 2}
  - m_RefCount: 1
    m_Data: {fileID: 11400000, guid: 2df158965f436bc4f9d5bd8cfdcca780, type: 2}
  - m_RefCount: 1
    m_Data: {fileID: 11400000, guid: 6f466371a03b714479fa3a1dcdca9174, type: 2}
  - m_RefCount: 1
    m_Data: {fileID: 11400000, guid: 99476c87e1bba494094cedbea76ca13b, type: 2}
  - m_RefCount: 1
    m_Data: {fileID: 11400000, guid: a2a7288dcf6cee54b84fca778bc5596e, type: 2}
  - m_RefCount: 1
    m_Data: {fileID: 11400000, guid: c91db04e55fc80d46abe846f6123b3d0, type: 2}
  - m_RefCount: 1
    m_Data: {fileID: 11400000, guid: 4148d8ca5cd241c41adc9e8e5866c41f, type: 2}
  - m_RefCount: 1
    m_Data: {fileID: 11400000, guid: b4e135780178e7f42ba6cb52668a071b, type: 2}
  - m_RefCount: 1
    m_Data: {fileID: 11400000, guid: 08289390a1500d442b3000294d8d856a, type: 2}
  - m_RefCount: 1
    m_Data: {fileID: 11400000, guid: fbb6846eb2f26fe44919543eff8e50c6, type: 2}
  - m_RefCount: 1
    m_Data: {fileID: 11400000, guid: 1a8c52359d1af3846b18d61fd8883212, type: 2}
  - m_RefCount: 1
    m_Data: {fileID: 11400000, guid: f940dcddef9f5ab42a3c66be649f112f, type: 2}
  - m_RefCount: 1
    m_Data: {fileID: 11400000, guid: 9e11e7cfef4eab045a22e811849091e8, type: 2}
  - m_RefCount: 1
    m_Data: {fileID: 11400000, guid: e9398d7d1e2dd684984d5562ea140795, type: 2}
  - m_RefCount: 1
    m_Data: {fileID: 11400000, guid: c161214ae098e0e47be4c1c9c46f49ff, type: 2}
  - m_RefCount: 1
    m_Data: {fileID: 11400000, guid: 8317b7f503987b14cbb9f351c59e2104, type: 2}
  - m_RefCount: 1
    m_Data: {fileID: 11400000, guid: 5d5b4aad5d6b67a4a8578749fc658dd8, type: 2}
  - m_RefCount: 1
    m_Data: {fileID: 11400000, guid: f0e84f44074a8c2449fd67c5eb3818f0, type: 2}
  - m_RefCount: 1
    m_Data: {fileID: 11400000, guid: 03e5f0b8cdb25d24c911c87202bbd22a, type: 2}
  - m_RefCount: 1
    m_Data: {fileID: 11400000, guid: 69c0e718180e35f469d9d31a55cd3762, type: 2}
  - m_RefCount: 1
    m_Data: {fileID: 11400000, guid: 34c1ffe50b91e264e8af0e9ca8167e1b, type: 2}
  - m_RefCount: 1
    m_Data: {fileID: 11400000, guid: c75c23a99f8e5c3408f3b36187273df0, type: 2}
  - m_RefCount: 1
    m_Data: {fileID: 11400000, guid: 45af4faba44c1de4d9a591ef36fec9bf, type: 2}
  - m_RefCount: 1
    m_Data: {fileID: 11400000, guid: b6c17b2eeabf4304e95f5c85f0f55547, type: 2}
  - m_RefCount: 1
    m_Data: {fileID: 11400000, guid: 9377213281be04d4885ca7fb72c6788a, type: 2}
  - m_RefCount: 1
    m_Data: {fileID: 11400000, guid: 9538a0bcfdb02a44e8129f38f29b62f3, type: 2}
  - m_RefCount: 1
    m_Data: {fileID: 11400000, guid: d350882344ca3784b963054414946596, type: 2}
  - m_RefCount: 1
    m_Data: {fileID: 11400000, guid: cddc4f080f4116f43b89d1e60fbd7b05, type: 2}
  - m_RefCount: 1
    m_Data: {fileID: 11400000, guid: 8b8e2939e0b19c14cbcd983add2988c0, type: 2}
  - m_RefCount: 1
    m_Data: {fileID: 11400000, guid: 63d4f418c81723148928b66eb2ae04de, type: 2}
  - m_RefCount: 1
    m_Data: {fileID: 11400000, guid: faef68e1c61b6954898f099c355b1c2f, type: 2}
  - m_RefCount: 1
    m_Data: {fileID: 11400000, guid: a423a8375bdf18140a4ae924e6fbf92f, type: 2}
  - m_RefCount: 1
    m_Data: {fileID: 11400000, guid: bf8f8742545f5294c81aff69b698e7a1, type: 2}
  - m_RefCount: 1
    m_Data: {fileID: 11400000, guid: 7274e678c8cbd09418007bfe9a46c88c, type: 2}
  - m_RefCount: 1
    m_Data: {fileID: 11400000, guid: 9ce53ad049ad2944e8b3fea0a52fe7e3, type: 2}
  - m_RefCount: 1
    m_Data: {fileID: 11400000, guid: 4ea9e786fe158d349bce80049750289c, type: 2}
  - m_RefCount: 1
    m_Data: {fileID: 11400000, guid: 21bf5b53691ad774cbe0a76969c146c8, type: 2}
  - m_RefCount: 1
    m_Data: {fileID: 11400000, guid: 06f429cca04a3384a93ad8ffb601cf39, type: 2}
  - m_RefCount: 1
    m_Data: {fileID: 11400000, guid: 9cf52beb1420f5b4993095e709dc81ed, type: 2}
  - m_RefCount: 1
    m_Data: {fileID: 11400000, guid: 268abc9efb3b3824fbad9c1201591d32, type: 2}
  m_TileSpriteArray:
  - m_RefCount: 1
    m_Data: {fileID: 21300000, guid: 0466cce3a4153144ab6ee56023cd8b5d, type: 3}
  - m_RefCount: 1
    m_Data: {fileID: 21300000, guid: a2594a8e7381f3e4d820ca06973551df, type: 3}
  - m_RefCount: 1
    m_Data: {fileID: 21300000, guid: df3942d87b484244da9d04ef6288c959, type: 3}
  - m_RefCount: 1
    m_Data: {fileID: 21300000, guid: 16054ceaa2441b74dbeeade8d1e678d1, type: 3}
  - m_RefCount: 1
    m_Data: {fileID: 21300000, guid: e72433f5862827a48a6788452b990353, type: 3}
  - m_RefCount: 1
    m_Data: {fileID: 21300000, guid: c9b344c9d7cd3ff4a94b55a45f8f54e4, type: 3}
  - m_RefCount: 1
    m_Data: {fileID: 21300000, guid: 4b383621955b6dd4796031068447eee7, type: 3}
  - m_RefCount: 1
    m_Data: {fileID: 21300000, guid: 690ed7101ba1a3c4489aa93d0bf7dd09, type: 3}
  - m_RefCount: 1
    m_Data: {fileID: 21300000, guid: ac10132f07f30ad41af194f1854f5760, type: 3}
  - m_RefCount: 1
    m_Data: {fileID: 21300000, guid: d2cf84b64b40cd945be458dc01dfa2c9, type: 3}
  - m_RefCount: 1
    m_Data: {fileID: 21300000, guid: c6937644fd42f514dae3aede5c50f253, type: 3}
  - m_RefCount: 1
    m_Data: {fileID: 21300000, guid: af009518cb37fd844a2e852f603b385a, type: 3}
  - m_RefCount: 1
    m_Data: {fileID: 21300000, guid: dac6d26230d682f44bfd16222e2e8e16, type: 3}
  - m_RefCount: 1
    m_Data: {fileID: 21300000, guid: ece5e977705731346b42fcb1c546a0eb, type: 3}
  - m_RefCount: 1
    m_Data: {fileID: 21300000, guid: 639e9cc0f67bc974581a6622f439fc63, type: 3}
  - m_RefCount: 1
    m_Data: {fileID: 21300000, guid: aa32a31689abddb4ab4f97b736366343, type: 3}
  - m_RefCount: 1
    m_Data: {fileID: 21300000, guid: 077e42fa7d3e6794685ec2456effbd9c, type: 3}
  - m_RefCount: 1
    m_Data: {fileID: 21300000, guid: 4a1adbd1b7b9dfc4dbca782511699094, type: 3}
  - m_RefCount: 1
    m_Data: {fileID: 21300000, guid: 00bf1a4808d73bc4a90ec2ec04409577, type: 3}
  - m_RefCount: 1
    m_Data: {fileID: 21300000, guid: 9de68c770a0d3c640baed1d62301bf7d, type: 3}
  - m_RefCount: 1
    m_Data: {fileID: 21300000, guid: 0b42845b698db7045bde72dbbf6e759b, type: 3}
  - m_RefCount: 1
    m_Data: {fileID: 21300000, guid: 713a298de43486b45a39ab00da043e7e, type: 3}
  - m_RefCount: 1
    m_Data: {fileID: 21300000, guid: e501a56921f53bf4db8b82dc139e7a4b, type: 3}
  - m_RefCount: 1
    m_Data: {fileID: 21300000, guid: 9163b86e48841a842a1c316720233a1b, type: 3}
  - m_RefCount: 1
    m_Data: {fileID: 21300000, guid: 4d1977deed86f864b946692a36b6bc1e, type: 3}
  - m_RefCount: 1
    m_Data: {fileID: 21300000, guid: e01ffb5029ad66145845fc479fa2fdbe, type: 3}
  - m_RefCount: 1
    m_Data: {fileID: 21300000, guid: 32229fd4239fc234a9ac84d47458fbdc, type: 3}
  - m_RefCount: 1
    m_Data: {fileID: 21300000, guid: f80d381dd76b39a4e896c7f843f080c6, type: 3}
  - m_RefCount: 1
    m_Data: {fileID: 21300000, guid: 2f99c7f36d2bd1a48a62d9e5f08631fe, type: 3}
  - m_RefCount: 1
    m_Data: {fileID: 21300000, guid: 9e21710a12329ff42892cab17e167ac7, type: 3}
  - m_RefCount: 1
    m_Data: {fileID: 21300000, guid: 3406ab017bc90f34791480198295646c, type: 3}
  - m_RefCount: 1
    m_Data: {fileID: 21300000, guid: f0d953ec756597f4d9ec31cd39fed180, type: 3}
  - m_RefCount: 1
    m_Data: {fileID: 21300000, guid: c31da2cd96821b048936b36be12c3d43, type: 3}
  - m_RefCount: 1
    m_Data: {fileID: 21300000, guid: 59915f0312cf05b41b9fce02ecfc6d45, type: 3}
  - m_RefCount: 1
    m_Data: {fileID: 21300000, guid: 7ae511bd6a2da8442a0290c8d1f9359c, type: 3}
  - m_RefCount: 1
    m_Data: {fileID: 21300000, guid: 21fff141f635de44f876225b712f9d83, type: 3}
  - m_RefCount: 1
    m_Data: {fileID: 21300000, guid: b267420c6f41e194488b1d01837bae38, type: 3}
  - m_RefCount: 1
    m_Data: {fileID: 21300000, guid: 294656bd5a77f8c46ba3044cd2050e6b, type: 3}
  - m_RefCount: 1
    m_Data: {fileID: 21300000, guid: a2a5c5585117d444aa76c6c820b7213f, type: 3}
  - m_RefCount: 1
    m_Data: {fileID: 21300000, guid: b826186aa98c7144a891cc1305a04c23, type: 3}
  - m_RefCount: 1
    m_Data: {fileID: 21300000, guid: 9cac79b8dfcf383428054378664344d8, type: 3}
  - m_RefCount: 1
    m_Data: {fileID: 21300000, guid: 3e2f397b483aa8f468aab58ee5ff92b8, type: 3}
  - m_RefCount: 1
    m_Data: {fileID: 21300000, guid: cc37dcc181486bd4b940c5d43ff141c5, type: 3}
  - m_RefCount: 1
    m_Data: {fileID: 21300000, guid: c48d5e6242e75f64ebeb1c809d5ecfa9, type: 3}
  - m_RefCount: 1
    m_Data: {fileID: 21300000, guid: f2d515647c6d45b4587b9081e70c9509, type: 3}
  - m_RefCount: 1
    m_Data: {fileID: 21300000, guid: 1bc80b8597577ec468097cee74d7aa0f, type: 3}
  - m_RefCount: 1
    m_Data: {fileID: 21300000, guid: b52e19c6e80afd345aed5990fe6fb88d, type: 3}
  - m_RefCount: 1
    m_Data: {fileID: 21300000, guid: 49bd10d8e03861446a2951990d5f7995, type: 3}
  - m_RefCount: 1
    m_Data: {fileID: 21300000, guid: c7a231aa16cad914c9f683a83f898149, type: 3}
  - m_RefCount: 1
    m_Data: {fileID: 21300000, guid: afe5c5364a7d8354888e4c987882307c, type: 3}
  - m_RefCount: 1
    m_Data: {fileID: 21300000, guid: f4df5c662ac920f499b1646ef5ec35bc, type: 3}
  - m_RefCount: 1
    m_Data: {fileID: 21300000, guid: caf1eb604725992439a902c369a0fdd5, type: 3}
  - m_RefCount: 1
    m_Data: {fileID: 21300000, guid: b3fe1bdaa0a883a4abea079be8da9f9a, type: 3}
  - m_RefCount: 1
    m_Data: {fileID: 21300000, guid: 5c357e70a9a5f4c4fa2530822147e2f1, type: 3}
  - m_RefCount: 1
    m_Data: {fileID: 21300000, guid: 9a9984a79abbb784997a3ca9dea17709, type: 3}
  - m_RefCount: 1
    m_Data: {fileID: 21300000, guid: ef82919fee0e1554f90587504fcfd8bc, type: 3}
  - m_RefCount: 1
    m_Data: {fileID: 21300000, guid: ad7b2b3703fc51846a624187d543dcac, type: 3}
  - m_RefCount: 1
    m_Data: {fileID: 21300000, guid: edfd4871e597342419b848cb9bf70914, type: 3}
  - m_RefCount: 1
    m_Data: {fileID: 21300000, guid: c9e991360bf3feb41b33aaeacce29549, type: 3}
  - m_RefCount: 1
    m_Data: {fileID: 21300000, guid: 102541a4742d77b4abc2f01f14c2870b, type: 3}
  - m_RefCount: 1
    m_Data: {fileID: 21300000, guid: 06dc97c39934da24b8acbf776b74423f, type: 3}
  - m_RefCount: 1
    m_Data: {fileID: 21300000, guid: 94823a24cd9417748847f00546fe1a05, type: 3}
  - m_RefCount: 1
    m_Data: {fileID: 21300000, guid: c50da6c2d5f36e34b884efd337a03399, type: 3}
  - m_RefCount: 1
    m_Data: {fileID: 21300000, guid: 365507501b546504dbb725adcb1fe6c8, type: 3}
  - m_RefCount: 1
    m_Data: {fileID: 21300000, guid: 65308f768fcfb0b4581fbc833c5267d8, type: 3}
  - m_RefCount: 1
    m_Data: {fileID: 21300000, guid: 1187922e238de3d48b245204b4e221fb, type: 3}
  - m_RefCount: 1
    m_Data: {fileID: 21300000, guid: de216fc9b996d934091b0dd8f964c085, type: 3}
  - m_RefCount: 1
    m_Data: {fileID: 21300000, guid: 3da9e0e16c7c6714da20d3e3cc5f86af, type: 3}
  m_TileMatrixArray:
  - m_RefCount: 68
    m_Data:
      e00: 1
      e01: 0
      e02: 0
      e03: 0
      e10: 0
      e11: 1
      e12: 0
      e13: 0
      e20: 0
      e21: 0
      e22: 1
      e23: 0
      e30: 0
      e31: 0
      e32: 0
      e33: 1
  m_TileColorArray:
  - m_RefCount: 68
    m_Data: {r: 1, g: 1, b: 1, a: 1}
  m_AnimationFrameRate: 1
  m_Color: {r: 1, g: 1, b: 1, a: 1}
  m_Origin: {x: -1, y: -7, z: 0}
  m_Size: {x: 9, y: 8, z: 1}
  m_TileAnchor: {x: 0.5, y: 0.5, z: 0}
  m_TileOrientation: 0
  m_TileOrientationMatrix:
    e00: 1
    e01: 0
    e02: 0
    e03: 0
    e10: 0
    e11: 1
    e12: 0
    e13: 0
    e20: 0
    e21: 0
    e22: 1
    e23: 0
    e30: 0
    e31: 0
    e32: 0
    e33: 1
